STORMTROOPERS - Data Preparation
…
3.4 Period Summarisation

mean_monthly_temp <- datacleaned %>%
  group_by(station) %>%
  summarise_by_time(
    DATE,
    .by = "month", 
    value = mean(mean_temperature),
    .type = "ceiling"
  ) %>% rename(mean_monthly_temperature = value)

mean_monthly_temp

# A tibble: 3,947 × 3
# Groups:   station [13]
   station   DATE       mean_monthly_temperature
   <chr>     <date>                        <dbl>
 1 Admiralty 2009-02-01                     NA  
 2 Admiralty 2009-03-01                     26.8
 3 Admiralty 2009-04-01                     NA  
 4 Admiralty 2009-05-01                     28.1
 5 Admiralty 2009-06-01                     28.5
 6 Admiralty 2009-07-01                     28.9
 7 Admiralty 2009-08-01                     28.1
 8 Admiralty 2009-09-01                     28.1
 9 Admiralty 2009-10-01                     28.3
10 Admiralty 2009-11-01                     28.0
# ℹ 3,937 more rows

min_monthly_temp <- datacleaned %>%
  group_by(station) %>%
  summarise_by_time(
    DATE,
    .by = "month", 
    value = min(minimum_temperature),
    .type = "ceiling"
  ) %>% rename(min_monthly_temperature = value)

min_monthly_temp

# A tibble: 3,947 × 3
# Groups:   station [13]
   station   DATE       min_monthly_temperature
   <chr>     <date>                       <dbl>
 1 Admiralty 2009-02-01                    NA  
 2 Admiralty 2009-03-01                    23  
 3 Admiralty 2009-04-01                    NA  
 4 Admiralty 2009-05-01                    23.7
 5 Admiralty 2009-06-01                    21.8
 6 Admiralty 2009-07-01                    23.7
 7 Admiralty 2009-08-01                    22.5
 8 Admiralty 2009-09-01                    22.7
 9 Admiralty 2009-10-01                    23.1
10 Admiralty 2009-11-01                    22.2
# ℹ 3,937 more rows

max_monthly_temp <- datacleaned %>%
  group_by(station) %>%
  summarise_by_time(
    DATE,
    .by = "month", 
    value = max(minimum_temperature),
    .type      = "ceiling"
  ) %>% rename(max_monthly_temperature = value)

max_monthly_temp

# A tibble: 3,947 × 3
# Groups:   station [13]
   station   DATE       max_monthly_temperature
   <chr>     <date>                       <dbl>
 1 Admiralty 2009-02-01                    NA  
 2 Admiralty 2009-03-01                    26  
 3 Admiralty 2009-04-01                    NA  
 4 Admiralty 2009-05-01                    27.7
 5 Admiralty 2009-06-01                    27  
 6 Admiralty 2009-07-01                    27.9
 7 Admiralty 2009-08-01                    27.6
 8 Admiralty 2009-09-01                    27.4
 9 Admiralty 2009-10-01                    27.7
10 Admiralty 2009-11-01                    26.7
# ℹ 3,937 more rows

monthly_rf <- datacleaned %>%
  group_by(station) %>%
  summarise_by_time(
    DATE,
    .by = "month", 
    value = sum(daily_rainfall_total)
  ) %>% rename(monthly_rainfall = value)

monthly_rf

# A tibble: 3,947 × 3
# Groups:   station [13]
   station   DATE       monthly_rainfall
   <chr>     <date>                <dbl>
 1 Admiralty 2009-01-01             NA  
 2 Admiralty 2009-02-01            148  
 3 Admiralty 2009-03-01             NA  
 4 Admiralty 2009-04-01            149. 
 5 Admiralty 2009-05-01            206. 
 6 Admiralty 2009-06-01             92  
 7 Admiralty 2009-07-01            103  
 8 Admiralty 2009-08-01             90.2
 9 Admiralty 2009-09-01             67.6
10 Admiralty 2009-10-01            160  
# ℹ 3,937 more rows

3.5 Joining the data tables

weatherdata <- left_join(mean_monthly_temp, min_monthly_temp)
weatherdata

# A tibble: 3,947 × 4
# Groups:   station [13]
   station   DATE       mean_monthly_temperature min_monthly_temperature
   <chr>     <date>                        <dbl>                   <dbl>
 1 Admiralty 2009-02-01                     NA                      NA  
 2 Admiralty 2009-03-01                     26.8                    23  
 3 Admiralty 2009-04-01                     NA                      NA  
 4 Admiralty 2009-05-01                     28.1                    23.7
 5 Admiralty 2009-06-01                     28.5                    21.8
 6 Admiralty 2009-07-01                     28.9                    23.7
 7 Admiralty 2009-08-01                     28.1                    22.5
 8 Admiralty 2009-09-01                     28.1                    22.7
 9 Admiralty 2009-10-01                     28.3                    23.1
10 Admiralty 2009-11-01                     28.0                    22.2
# ℹ 3,937 more rows

weatherdata <- left_join(weatherdata, max_monthly_temp)
weatherdata

# A tibble: 3,947 × 5
# Groups:   station [13]
   station   DATE       mean_monthly_temperature min_monthly_temperature
   <chr>     <date>                        <dbl>                   <dbl>
 1 Admiralty 2009-02-01                     NA                      NA  
 2 Admiralty 2009-03-01                     26.8                    23  
 3 Admiralty 2009-04-01                     NA                      NA  
 4 Admiralty 2009-05-01                     28.1                    23.7
 5 Admiralty 2009-06-01                     28.5                    21.8
 6 Admiralty 2009-07-01                     28.9                    23.7
 7 Admiralty 2009-08-01                     28.1                    22.5
 8 Admiralty 2009-09-01                     28.1                    22.7
 9 Admiralty 2009-10-01                     28.3                    23.1
10 Admiralty 2009-11-01                     28.0                    22.2
# ℹ 3,937 more rows
# ℹ 1 more variable: max_monthly_temperature <dbl>
…
